<?xml version="1.0" standalone="no"?>
<!DOCTYPE svg PUBLIC "-//W3C//DTD SVG 20010904//EN"
 "http://www.w3.org/TR/2001/REC-SVG-20010904/DTD/svg10.dtd">
<svg version="1.0" xmlns="http://www.w3.org/2000/svg"
 width="1280.000000pt" height="1280.000000pt" viewBox="0 0 1280.000000 1280.000000"
 preserveAspectRatio="xMidYMid meet">
<metadata>
Created by potrace 1.15, written by Peter Selinger 2001-2017
</metadata>
<g transform="translate(0.000000,1280.000000) scale(0.100000,-0.100000)"
fill="#000000" stroke="none">
<path d="M6400 11435 c-106 -16 -174 -55 -261 -150 -53 -58 -124 -223 -138
-320 -7 -52 -43 -243 -58 -315 l-6 -25 -7 25 c-4 14 -14 39 -23 55 -31 59
-170 174 -228 188 -79 19 -252 69 -299 86 -30 10 -91 25 -135 31 -44 7 -91 14
-105 17 -64 13 -196 14 -234 3 -89 -28 -122 -39 -156 -54 -37 -17 -45 -22
-127 -73 -28 -18 -54 -33 -57 -33 -18 0 -178 -76 -226 -107 -84 -55 -170 -138
-170 -164 0 -9 -7 -22 -15 -29 -8 -7 -15 -22 -15 -34 0 -11 -7 -30 -15 -40 -8
-11 -15 -32 -15 -47 0 -15 -4 -30 -9 -33 -5 -3 -12 -25 -15 -48 -7 -44 -9 -57
-26 -188 -9 -74 -22 -137 -41 -215 -56 -224 -67 -469 -23 -506 8 -6 14 -19 14
-28 1 -31 86 -96 114 -85 22 8 27 -24 31 -199 2 -89 8 -186 14 -216 6 -29 12
-104 13 -165 2 -109 2 -110 8 -36 l6 75 2 -82 c2 -82 2 -83 -22 -83 -14 0 -33
-11 -45 -26 -34 -44 -45 -125 -46 -346 0 -115 -3 -208 -7 -208 -3 0 3 -28 13
-62 11 -36 19 -84 17 -113 -1 -27 1 -56 5 -62 5 -7 5 -18 1 -24 -3 -6 -7 -44
-8 -85 -1 -56 2 -74 12 -74 10 0 12 -8 7 -29 -3 -16 -8 -63 -10 -105 -2 -41
-8 -83 -13 -92 -5 -9 -6 -33 -2 -53 4 -22 -1 -79 -12 -141 -12 -66 -16 -124
-13 -155 11 -84 9 -97 -30 -200 -70 -187 -104 -221 -275 -270 -172 -50 -197
-73 -209 -201 -18 -191 42 -410 131 -473 20 -14 59 -16 263 -18 132 -1 248 -2
258 -3 13 0 17 -9 17 -37 0 -21 7 -99 16 -173 20 -164 20 -172 6 -238 -20 -89
21 -302 76 -405 27 -51 134 -152 189 -181 39 -20 178 -72 248 -92 77 -23 165
-12 250 31 39 19 78 35 88 35 33 0 92 31 131 68 29 28 37 32 33 17 -3 -11 -9
-40 -12 -64 -6 -37 -20 -57 -83 -125 -62 -66 -86 -102 -134 -201 -89 -183
-169 -334 -214 -400 -49 -72 -74 -119 -113 -217 -16 -40 -59 -130 -96 -200
-65 -124 -67 -127 -92 -117 -14 5 -33 7 -42 4 -9 -3 -40 -53 -68 -112 -33 -71
-72 -133 -112 -180 -34 -39 -61 -80 -61 -90 0 -11 16 -34 35 -53 39 -38 42
-52 20 -94 -11 -21 -12 -32 -4 -42 8 -9 5 -15 -10 -23 -24 -13 -52 -67 -44
-87 5 -12 7 -12 18 2 11 15 13 14 19 -10 11 -45 -18 -126 -59 -166 -63 -61
-134 -156 -161 -216 -14 -32 -39 -75 -55 -96 -29 -36 -29 -38 -15 -67 9 -16
64 -68 124 -114 60 -48 121 -105 137 -129 37 -56 148 -203 225 -297 33 -41 58
-76 57 -78 -2 -2 -64 -10 -138 -19 -184 -21 -419 -62 -435 -75 -7 -6 -17 -8
-23 -5 -5 4 -12 -3 -16 -14 -3 -11 -10 -20 -14 -20 -3 0 -15 -13 -24 -30 -10
-16 -14 -30 -8 -30 6 0 7 -7 4 -17 -4 -11 -3 -14 5 -9 11 6 16 -5 14 -25 -3
-17 89 -29 130 -18 16 4 30 3 34 -2 3 -5 8 -8 12 -5 4 2 36 7 72 10 36 4 79 9
95 11 17 2 59 6 95 10 151 13 350 42 553 79 77 14 127 37 127 58 0 6 18 26 40
45 39 34 40 36 40 98 0 35 -5 67 -10 70 -6 4 -19 24 -30 46 -27 52 -56 69
-159 94 l-86 21 1 91 c0 83 3 94 27 123 19 22 28 45 29 73 1 23 3 63 4 89 2
56 40 154 70 184 32 31 56 72 50 83 -11 18 5 58 28 71 30 16 60 71 76 140 7
30 23 76 36 102 27 54 32 116 9 124 -13 5 -13 10 1 36 9 17 13 39 11 50 -8 29
18 93 54 136 17 21 46 71 63 112 49 116 93 197 130 238 66 74 134 178 146 222
15 55 23 64 132 151 50 41 118 108 161 162 97 120 242 338 319 480 33 61 89
155 123 207 34 52 67 104 73 116 8 14 32 25 87 38 42 10 79 16 82 12 3 -3 22
-54 43 -113 21 -59 56 -152 79 -207 30 -71 44 -122 51 -184 9 -81 21 -113 61
-157 9 -11 31 -55 48 -98 27 -68 30 -84 21 -115 -5 -21 -10 -49 -10 -64 0 -35
74 -215 144 -348 30 -58 62 -130 71 -160 53 -171 73 -226 122 -330 30 -63 72
-164 94 -224 l39 -110 -20 -21 c-28 -29 -25 -59 11 -135 45 -94 65 -157 80
-246 16 -99 34 -120 115 -129 67 -8 90 -21 74 -40 -8 -9 -4 -17 15 -29 14 -9
25 -26 26 -39 0 -12 3 -16 6 -9 9 23 51 13 78 -20 22 -26 25 -38 20 -62 -4
-17 -9 -96 -11 -176 -3 -139 -2 -147 21 -181 25 -39 91 -86 201 -143 57 -30
272 -203 262 -211 -2 -1 -41 -5 -88 -8 -47 -4 -151 -16 -230 -28 -80 -11 -154
-22 -165 -24 -11 -1 -49 -8 -85 -14 -36 -7 -76 -14 -90 -17 -14 -2 -41 -7 -60
-10 -19 -3 -50 -9 -69 -14 -19 -5 -38 -7 -43 -4 -4 3 -8 0 -8 -6 0 -6 -3 -9
-7 -7 -11 7 -157 -22 -161 -31 -1 -4 -19 -6 -39 -4 -27 3 -40 0 -50 -14 -12
-17 -13 -17 -14 2 0 10 -3 13 -6 6 -2 -6 -9 -10 -14 -7 -5 4 -6 -1 -3 -9 7
-19 0 -20 -27 -6 -13 7 -19 7 -19 0 0 -5 -9 -10 -21 -10 -11 0 -17 -5 -14 -10
4 -6 10 -8 14 -6 4 3 8 -4 8 -15 1 -11 -2 -17 -7 -14 -5 3 -11 1 -15 -5 -7
-11 5 -13 29 -4 9 3 13 11 9 17 -3 6 -1 7 6 3 6 -4 9 -12 6 -17 -4 -5 1 -16 9
-25 17 -16 21 -10 16 31 -2 16 0 17 14 6 9 -7 16 -10 17 -5 1 5 4 -2 8 -15 6
-22 8 -23 23 -7 11 10 19 12 23 6 8 -12 36 6 32 20 -1 4 2 7 8 6 13 -1 16 -26
4 -26 -6 0 -7 -5 -4 -10 4 -7 13 -6 27 1 11 6 18 7 14 1 -6 -10 34 -25 43 -17
2 3 -1 5 -7 5 -7 0 -12 4 -12 8 0 5 10 8 23 6 12 -1 22 -3 22 -4 0 -1 8 -3 18
-5 9 -2 17 1 17 6 0 5 -5 9 -12 9 -6 0 -8 3 -5 7 4 3 17 -2 29 -13 21 -19 21
-19 15 4 -5 20 -3 21 10 10 9 -7 24 -12 35 -10 10 2 18 -2 18 -8 0 -6 5 -8 11
-4 12 7 63 10 309 18 261 9 422 22 710 57 189 23 288 43 329 64 43 22 119 112
131 155 15 57 1 128 -35 180 -43 62 -83 86 -165 101 -88 15 -123 37 -151 91
-20 39 -23 60 -18 143 1 22 -3 55 -25 195 -12 78 -24 113 -65 195 -40 78 -51
110 -51 147 0 56 -12 91 -45 130 -14 16 -25 38 -25 48 0 11 -26 48 -59 82 -32
35 -80 98 -106 141 -25 42 -56 82 -68 88 -80 41 -125 82 -149 137 -33 73 -98
276 -98 306 0 12 -9 49 -19 82 -12 36 -24 117 -30 209 -15 194 -35 331 -86
573 -14 67 -34 203 -45 301 -22 202 -72 518 -96 601 -8 30 -33 111 -54 180
-21 69 -50 170 -64 224 -26 98 -26 100 -12 200 24 164 39 403 32 528 l-6 116
29 24 c17 12 46 45 66 73 39 56 43 52 18 -17 -15 -43 -15 -48 1 -72 9 -14 22
-26 29 -26 14 0 81 101 99 151 8 22 13 88 13 184 0 122 -4 170 -24 253 -22
101 -23 104 -5 124 17 18 19 38 19 167 0 166 -11 208 -73 289 -35 45 -37 53
-49 167 -14 140 -17 405 -4 405 4 0 13 19 19 43 13 51 22 243 12 254 -4 4 -13
46 -19 93 -15 109 -51 243 -96 363 -19 52 -35 101 -35 108 0 7 -6 20 -14 28
-16 20 -114 230 -173 376 -80 194 -126 268 -241 387 l-75 77 7 65 c12 117 55
288 84 336 23 37 34 46 70 53 33 6 48 16 67 45 35 54 114 235 121 280 10 61
-23 118 -83 147 -1 1 -11 48 -23 105 -11 57 -31 128 -45 156 -53 108 -204 214
-360 252 -98 24 -264 32 -365 17z m-2259 -1692 c4 -65 10 -136 13 -158 l6 -40
-25 52 c-28 56 -44 165 -37 247 4 43 6 47 20 33 11 -11 17 -49 23 -134z m-61
-231 c0 -9 14 -31 32 -49 18 -18 27 -33 22 -33 -21 0 -74 72 -74 100 0 6 5 8
10 5 6 -3 10 -14 10 -23z m178 -260 c2 -59 -1 -88 -12 -103 -18 -27 -22 -18
-31 71 -3 41 -11 78 -17 81 -21 13 1 40 29 37 28 -3 28 -4 31 -86z m-70 -248
c4 -72 -10 -64 -18 12 -4 36 -3 53 4 51 6 -2 12 -30 14 -63z m19 -41 c-3 -10
-5 -4 -5 12 0 17 2 24 5 18 2 -7 2 -21 0 -30z m24 -1160 c-9 -15 -10 -12 -11
18 0 20 3 39 8 43 11 12 14 -42 3 -61z m-71 -7 c0 -53 -11 -94 -27 -100 -11
-5 -13 -1 -7 16 4 12 8 43 9 68 3 53 2 50 15 50 6 0 10 -15 10 -34z m42 -90
c-8 -13 -6 -227 3 -247 3 -9 -5 -58 -18 -110 -22 -89 -24 -93 -37 -70 -7 15
-12 53 -11 90 4 222 9 293 17 299 6 4 11 30 13 57 3 59 8 98 11 105 1 3 8 -22
15 -55 7 -33 11 -64 7 -69z m30 -133 c5 -52 1 -73 -13 -73 -5 0 -9 27 -9 60 0
71 16 80 22 13z m-90 -395 l-20 -63 -1 55 c0 30 2 65 6 78 5 21 7 22 21 9 13
-13 12 -22 -6 -79z m168 5 c0 -17 -25 -73 -32 -73 -5 0 -4 9 2 19 5 11 10 29
10 40 0 12 5 21 10 21 6 0 10 -3 10 -7z m-121 -145 c-7 -50 -5 -69 8 -95 15
-29 15 -37 0 -107 -9 -42 -17 -87 -17 -99 0 -32 -14 -49 -33 -41 -21 8 -22 65
-1 184 8 47 16 96 18 110 12 89 19 119 25 115 4 -2 4 -32 0 -67z m106 -48
c-14 -83 -14 -94 0 -116 20 -31 20 -166 0 -224 -8 -23 -15 -55 -15 -71 0 -35
-17 -38 -26 -4 -10 41 16 415 33 468 8 27 17 46 20 44 2 -3 -3 -46 -12 -97z
m-88 -322 c-2 -13 -4 -5 -4 17 -1 22 1 32 4 23 2 -10 2 -28 0 -40z m108 -1018
c3 -5 1 -18 -4 -27 -6 -10 -11 -13 -11 -6 0 6 -3 18 -6 27 -7 17 11 22 21 6z
m2705 -4356 c0 -2 -7 -4 -15 -4 -8 0 -15 4 -15 10 0 5 7 7 15 4 8 -4 15 -8 15
-10z"/>
<path d="M6903 1318 c1 -7 -3 -12 -10 -11 -7 2 -10 -4 -6 -13 5 -13 0 -15 -30
-11 -22 3 -37 0 -40 -7 -3 -8 9 -12 37 -12 48 -1 84 29 65 53 -14 16 -20 17
-16 1z"/>
<path d="M6792 1298 c2 -7 -3 -12 -10 -10 -8 1 -11 -2 -7 -8 3 -5 10 -10 15
-10 12 0 20 29 9 35 -5 4 -8 1 -7 -7z"/>
<path d="M6930 1280 c0 -5 5 -10 10 -10 6 0 10 5 10 10 0 6 -4 10 -10 10 -5 0
-10 -4 -10 -10z"/>
<path d="M6566 1262 c-3 -5 1 -9 9 -9 8 0 12 4 9 9 -3 4 -7 8 -9 8 -2 0 -6 -4
-9 -8z"/>
<path d="M6905 1251 c-3 -5 -1 -12 4 -15 5 -3 11 1 15 9 6 16 -9 21 -19 6z"/>
<path d="M6808 1243 c7 -3 16 -2 19 1 4 3 -2 6 -13 5 -11 0 -14 -3 -6 -6z"/>
<path d="M6865 1240 c-3 -6 1 -7 9 -4 18 7 21 14 7 14 -6 0 -13 -4 -16 -10z"/>
</g>
</svg>
