<?xml version="1.0" standalone="no"?>
<!DOCTYPE svg PUBLIC "-//W3C//DTD SVG 20010904//EN"
 "http://www.w3.org/TR/2001/REC-SVG-20010904/DTD/svg10.dtd">
<svg version="1.0" xmlns="http://www.w3.org/2000/svg"
 width="989.000000pt" height="1280.000000pt" viewBox="0 0 989.000000 1280.000000"
 preserveAspectRatio="xMidYMid meet">
<metadata>
Created by potrace 1.15, written by Peter Selinger 2001-2017
</metadata>
<g transform="translate(0.000000,1280.000000) scale(0.100000,-0.100000)"
fill="#000000" stroke="none">
<path d="M6111 12029 c-30 -5 -62 -16 -70 -23 -9 -7 -31 -21 -49 -30 -31 -16
-38 -16 -104 0 -84 21 -135 14 -265 -35 -138 -51 -179 -77 -272 -171 -105
-106 -175 -205 -236 -332 -45 -94 -60 -141 -95 -303 -11 -49 -23 -101 -27
-115 l-6 -25 -7 25 c-7 21 -8 17 -10 -20 -2 -89 -8 -127 -30 -196 -31 -100
-51 -321 -45 -489 7 -170 14 -245 24 -245 4 0 15 17 25 37 24 51 34 30 39 -84
2 -50 7 -95 11 -102 4 -6 9 -132 11 -279 2 -147 7 -291 10 -320 5 -41 3 -59
-10 -79 -16 -24 -16 -31 0 -107 10 -45 18 -117 18 -161 0 -71 -5 -91 -38 -170
-36 -85 -96 -188 -116 -201 -5 -3 -37 13 -70 34 -34 22 -94 55 -135 72 -41 18
-74 36 -74 41 0 4 15 20 34 34 48 37 69 72 79 135 10 64 10 62 3 119 -6 48
-68 171 -118 233 -30 38 -31 42 -35 166 -3 118 -11 165 -64 409 -15 64 1 203
39 353 28 112 31 188 23 530 -2 80 0 186 5 235 21 210 -24 376 -156 570 -67
98 -168 197 -271 267 -53 36 -170 68 -264 73 -16 1 -59 15 -95 30 -93 40 -241
47 -355 16 -104 -29 -263 -107 -345 -169 -109 -83 -156 -157 -267 -417 -37
-89 -75 -161 -93 -180 -16 -16 -36 -48 -45 -70 -10 -22 -23 -47 -30 -55 -28
-33 -102 -315 -154 -584 -26 -131 -31 -185 -31 -300 0 -78 -3 -186 -7 -240
l-6 -99 -68 -102 c-60 -92 -72 -104 -111 -117 -36 -12 -50 -25 -85 -79 -85
-131 -211 -294 -293 -379 -47 -48 -118 -121 -158 -163 -49 -51 -88 -81 -119
-94 -25 -10 -62 -34 -82 -54 -38 -38 -111 -123 -124 -146 -12 -20 -47 -208
-47 -253 0 -30 -12 -56 -54 -120 -72 -107 -114 -210 -142 -350 -45 -222 -43
-383 12 -714 30 -178 32 -296 10 -515 -11 -106 -16 -256 -16 -481 0 -385 -8
-446 -82 -655 -92 -257 -101 -295 -102 -440 0 -109 6 -170 42 -385 78 -462 94
-543 137 -715 72 -280 176 -798 210 -1038 9 -64 24 -125 41 -161 21 -46 25
-67 21 -101 -4 -23 -45 -141 -93 -261 -135 -340 -152 -394 -185 -584 -29 -168
-30 -180 -20 -305 8 -99 17 -150 40 -215 33 -94 54 -116 94 -101 32 13 41 42
33 118 -15 161 -16 279 -2 333 l14 55 1 -107 c1 -75 8 -137 25 -210 14 -57 27
-129 31 -161 5 -52 3 -60 -17 -77 -13 -11 -20 -19 -16 -20 4 0 0 -21 -8 -47
-8 -27 -19 -102 -23 -169 -7 -102 -12 -127 -33 -165 -15 -24 -38 -76 -52 -116
-50 -141 -59 -192 -60 -328 l-1 -130 -43 -67 c-25 -38 -40 -73 -36 -79 4 -7 3
-9 -3 -6 -10 7 -33 -32 -48 -80 l-6 -23 810 0 c447 0 811 4 811 9 0 15 155
254 243 375 102 138 143 220 186 369 41 143 152 380 289 621 85 148 116 212
132 272 24 95 56 175 123 309 39 79 143 255 150 255 12 0 -18 -393 -43 -565
-47 -324 -50 -373 -35 -620 8 -127 19 -252 25 -280 31 -151 42 -302 36 -500
-4 -110 -9 -210 -12 -222 l-6 -23 1285 0 1286 0 6 38 c17 105 49 241 85 359
67 222 316 921 325 911 2 -2 52 -118 113 -258 60 -140 153 -354 207 -475 53
-121 110 -259 126 -308 33 -102 37 -110 96 -199 l45 -68 524 0 c288 0 524 2
524 4 0 12 -43 208 -60 277 -12 46 -55 191 -96 324 -113 368 -132 472 -159
890 -8 132 -22 305 -30 385 -8 80 -21 246 -29 370 l-14 224 23 31 c13 16 38
59 56 95 38 75 37 54 24 455 -7 241 -6 257 19 430 30 203 52 309 96 475 27 98
32 139 37 275 8 240 -21 381 -127 602 -61 130 -119 218 -210 324 -40 46 -100
125 -133 174 -155 231 -257 351 -342 400 -24 15 -89 42 -142 62 -106 37 -146
59 -180 95 -20 22 -21 28 -12 111 5 49 8 145 7 215 -1 109 3 147 30 270 30
135 72 413 107 711 15 130 17 136 53 180 153 188 207 289 272 511 45 156 54
213 53 345 -1 137 -17 223 -73 401 -53 167 -76 341 -42 320 10 -6 0 84 -22
206 -8 45 -17 97 -20 113 -28 181 -65 297 -117 370 -24 32 -37 55 -30 50 8 -4
7 2 -3 17 -26 39 -44 116 -51 215 -4 57 -11 91 -17 87 -14 -9 0 204 19 286 25
109 19 224 -21 420 -57 273 -69 313 -162 537 -76 183 -129 281 -206 384 -115
152 -289 287 -437 338 -44 16 -77 32 -73 36 4 3 -6 3 -22 -1 -19 -4 -27 -3
-23 3 4 6 -14 13 -46 17 -60 7 -64 7 -136 -5z m-1124 -1061 c-3 -8 -6 -5 -6 6
-1 11 2 17 5 13 3 -3 4 -12 1 -19z m-2432 -540 c-8 -60 -40 -197 -49 -206 -12
-12 -5 37 21 146 15 61 29 112 31 112 2 0 1 -24 -3 -52z m1962 -50 c-3 -7 -5
-2 -5 12 0 14 2 19 5 13 2 -7 2 -19 0 -25z m-2 -115 c-3 -24 -9 -42 -12 -40
-3 3 -2 30 2 59 5 29 10 47 13 40 2 -7 1 -34 -3 -59z m-74 -713 c-5 -42 -10
-59 -15 -48 -4 9 -2 43 5 75 15 73 21 58 10 -27z m-322 18 c-1 -7 -5 -24 -9
-38 -7 -22 -8 -21 -9 13 -1 20 4 37 9 37 6 0 10 -6 9 -12z m396 -145 c-3 -23
-10 -45 -16 -48 -12 -8 -11 15 3 94 11 57 13 61 16 31 2 -19 1 -54 -3 -77z
m-391 51 c3 -8 2 -12 -4 -9 -6 3 -10 10 -10 16 0 14 7 11 14 -7z m-1913 -627
c-8 -8 -11 -2 -11 19 0 40 14 54 18 19 2 -15 -1 -32 -7 -38z m-488 -159 c-14
-35 -32 -70 -40 -78 -14 -13 -14 -8 -8 45 5 48 12 64 33 82 15 11 30 19 33 17
4 -2 -4 -32 -18 -66z m-268 -80 c-21 -48 -26 -70 -22 -103 5 -33 2 -46 -12
-59 -10 -9 -21 -16 -24 -16 -4 0 -7 34 -7 76 0 64 4 81 23 104 12 16 31 41 41
56 31 44 31 10 1 -58z m71 -75 c-3 -4 -13 10 -21 30 -21 51 -18 59 6 14 11
-22 18 -41 15 -44z m342 -3025 c12 -46 23 -101 26 -123 l5 -40 -19 41 c-22 47
-50 147 -50 181 0 48 18 20 38 -59z m137 -335 c29 -69 33 -88 27 -125 l-8 -43
-19 55 c-11 30 -18 59 -17 63 1 4 -11 39 -28 78 -36 84 -36 85 -9 68 11 -8 36
-51 54 -96z m3309 -130 c72 -210 128 -337 193 -443 44 -72 154 -336 178 -429
22 -87 19 -123 -20 -225 -37 -93 -226 -485 -235 -486 -3 0 -22 71 -43 158 -27
116 -37 179 -37 240 0 46 -5 93 -11 104 -6 12 -16 55 -21 96 -10 84 -15 97
-68 167 -21 28 -68 104 -104 170 -61 112 -66 124 -67 185 0 36 -4 92 -8 125
-8 58 -6 66 55 220 34 88 73 195 86 237 12 43 26 78 29 78 3 0 36 -89 73 -197z
m-3401 40 c101 -197 106 -219 83 -353 -9 -51 -16 -121 -16 -154 0 -67 29 -219
54 -281 l16 -40 -6 40 c-17 112 -23 178 -23 255 0 53 3 77 8 65 l8 -20 5 20
c3 11 7 -2 8 -30 1 -38 4 -45 10 -30 7 17 9 16 9 -10 1 -20 4 -26 10 -17 5 9
11 -5 15 -40 10 -75 74 -356 88 -381 14 -26 5 -124 -24 -253 -19 -88 -21 -125
-19 -336 2 -291 -11 -362 -88 -476 l-35 -54 -18 39 c-127 278 -163 374 -192
515 -24 118 -21 324 11 583 22 186 26 265 28 510 2 320 11 468 29 458 6 -3 5
0 -1 8 -7 7 -13 33 -12 59 1 39 2 41 9 18 4 -15 24 -57 43 -95z m274 -300 c-3
-10 -5 -2 -5 17 0 19 2 27 5 18 2 -10 2 -26 0 -35z m-11 -347 c-9 -25 -26 49
-19 83 l7 36 8 -54 c5 -30 7 -60 4 -65z m-9 -58 c-3 -7 -5 -2 -5 12 0 14 2 19
5 13 2 -7 2 -19 0 -25z m38 -117 c5 -58 4 -91 -2 -91 -12 0 -23 82 -22 165 1
86 15 41 24 -74z m-961 -3540 c-15 -34 -29 -60 -31 -58 -2 3 8 32 23 66 15 34
29 59 31 57 3 -2 -8 -32 -23 -65z m-111 -550 c-3 -11 -14 -28 -25 -38 -22 -19
-22 -16 1 30 16 31 32 36 24 8z"/>
<path d="M6640 11907 c0 -3 12 -12 26 -22 15 -9 23 -12 20 -6 -7 11 -46 35
-46 28z"/>
<path d="M6700 11866 c0 -2 8 -10 18 -17 15 -13 16 -12 3 4 -13 16 -21 21 -21
13z"/>
</g>
</svg>
