<?xml version="1.0" standalone="no"?>
<!DOCTYPE svg PUBLIC "-//W3C//DTD SVG 20010904//EN"
 "http://www.w3.org/TR/2001/REC-SVG-20010904/DTD/svg10.dtd">
<svg version="1.0" xmlns="http://www.w3.org/2000/svg"
 width="989.000000pt" height="1280.000000pt" viewBox="0 0 989.000000 1280.000000"
 preserveAspectRatio="xMidYMid meet">
<metadata>
Created by potrace 1.15, written by Peter Selinger 2001-2017
</metadata>
<g transform="translate(0.000000,1280.000000) scale(0.100000,-0.100000)"
fill="#000000" stroke="none">
<path d="M4619 8426 c-14 -7 -41 -15 -60 -18 -60 -10 -208 -86 -259 -134 -53
-49 -102 -140 -125 -229 -22 -88 -30 -268 -16 -347 32 -166 -55 -324 -231
-421 -70 -38 -83 -42 -186 -57 -137 -19 -237 -68 -288 -141 -15 -22 -40 -47
-54 -54 -42 -22 -56 -65 -40 -130 13 -56 3 -138 -35 -275 -20 -74 -19 -141 5
-225 19 -65 19 -74 5 -142 -8 -40 -15 -97 -15 -128 0 -47 -8 -71 -56 -166 -73
-146 -96 -234 -97 -369 -1 -58 2 -136 6 -175 l7 -70 -52 -38 c-101 -72 -136
-113 -194 -233 -31 -63 -60 -114 -65 -114 -5 0 -9 -6 -9 -12 -1 -17 -52 -73
-73 -81 -9 -3 -17 -10 -17 -15 0 -5 -18 -22 -39 -36 -22 -15 -51 -44 -65 -64
-13 -20 -59 -73 -100 -116 -42 -44 -81 -95 -87 -114 -16 -47 -67 -149 -78
-157 -5 -3 -12 -19 -16 -36 -4 -16 -28 -56 -54 -87 -62 -75 -63 -76 -51 -107
9 -24 6 -31 -31 -68 -22 -23 -50 -59 -61 -80 -11 -22 -31 -49 -44 -61 -30 -25
-24 -61 7 -51 17 6 18 3 9 -19 -5 -14 -25 -47 -44 -73 -20 -26 -45 -66 -57
-88 -12 -21 -44 -59 -70 -83 -27 -24 -49 -48 -49 -53 0 -21 33 -21 61 0 36 26
38 9 4 -31 -14 -16 -25 -38 -25 -47 0 -23 -37 -71 -55 -71 -8 0 -22 -13 -32
-30 -9 -16 -25 -30 -34 -30 -9 0 -36 -11 -61 -24 -25 -13 -59 -27 -78 -31 -20
-4 -34 -15 -38 -27 -3 -13 -10 -17 -21 -12 -9 4 -63 10 -121 14 -75 5 -124 14
-170 32 -64 25 -179 41 -305 42 -50 1 -68 -4 -110 -30 -27 -17 -55 -41 -62
-54 -10 -20 -27 -28 -94 -42 -45 -10 -123 -20 -173 -24 -71 -4 -101 -11 -138
-31 -107 -58 -224 -221 -250 -347 -9 -46 -8 -59 10 -99 50 -112 106 -151 244
-168 101 -12 132 -3 286 84 164 94 282 117 425 85 49 -11 80 -13 110 -6 23 5
50 9 59 9 10 0 20 4 23 10 4 5 -6 9 -21 9 -19 0 -25 3 -18 10 11 11 244 2 244
-10 0 -4 -18 -34 -39 -67 -26 -41 -65 -81 -117 -121 -151 -116 -157 -124 -169
-236 -7 -62 -6 -69 16 -92 13 -14 52 -33 92 -46 61 -18 86 -20 206 -15 209 9
337 48 362 110 7 18 24 49 38 69 23 33 31 38 69 38 51 0 112 29 141 66 17 21
21 41 21 95 0 37 5 80 11 96 5 15 10 49 11 75 0 42 3 48 21 49 20 1 20 2 -2 8
-14 4 -26 11 -28 16 -4 14 209 7 222 -7 7 -7 3 -8 -14 -3 -14 4 -21 3 -17 -3
5 -8 24 -12 106 -23 8 -1 42 -1 75 0 59 3 60 3 30 16 -30 14 -29 14 30 16 78
2 85 1 113 -21 21 -17 26 -18 65 -4 34 13 87 15 272 13 268 -3 396 6 445 31
75 37 114 43 410 55 69 3 136 9 150 14 14 5 80 31 148 57 134 51 165 76 196
158 8 22 20 55 26 71 l12 30 19 -38 c12 -23 41 -51 77 -74 31 -21 74 -53 96
-71 58 -51 127 -78 276 -107 74 -14 205 -44 290 -65 85 -22 186 -44 224 -50
42 -7 250 -11 535 -11 256 0 540 -4 631 -9 239 -13 608 -48 655 -61 24 -7 68
-9 110 -5 65 6 79 3 205 -40 156 -54 189 -69 285 -133 149 -100 214 -126 246
-99 28 24 69 87 69 107 0 11 5 23 10 26 13 8 13 48 -1 62 -8 8 -8 17 0 31 26
49 0 122 -51 143 -15 6 -37 27 -49 45 -27 44 -64 63 -158 80 -78 13 -266 74
-358 115 l-53 23 -52 -23 c-49 -22 -66 -24 -223 -24 l-170 1 -200 59 c-110 33
-285 86 -389 117 -103 31 -206 59 -227 62 -22 4 -39 9 -39 12 0 3 14 21 31 38
30 31 33 32 68 19 20 -7 54 -24 75 -39 47 -32 87 -33 145 -2 43 22 47 23 115
9 236 -45 384 -65 591 -78 251 -16 379 -35 641 -95 208 -48 375 -98 509 -151
96 -39 227 -77 600 -173 94 -25 188 -52 210 -62 107 -45 190 -54 246 -26 26
13 43 16 67 10 46 -12 83 8 101 56 13 35 13 42 -2 67 -15 27 -15 29 2 39 24
13 32 45 16 67 -7 10 -11 31 -8 48 3 20 0 35 -10 43 -8 7 -13 21 -10 31 2 9
-3 23 -11 30 -9 8 -16 24 -16 37 0 52 -94 73 -330 74 -80 0 -188 6 -240 12
-52 7 -138 12 -190 13 -67 0 -104 5 -125 17 -16 9 -70 23 -120 33 -118 22
-328 92 -474 159 -65 30 -200 84 -302 121 -101 37 -263 99 -359 138 -96 38
-220 84 -275 102 l-100 32 -7 129 c-13 262 -87 465 -222 609 -44 46 -133 88
-217 101 -50 8 -100 39 -215 135 -86 72 -145 149 -163 214 -6 22 -11 78 -11
123 l0 84 49 44 c51 46 71 86 69 139 0 17 8 55 19 85 21 60 20 132 -2 150 -11
9 -11 18 0 51 22 62 55 248 55 309 0 93 -23 169 -157 518 -21 56 -52 114 -77
145 -84 105 -146 201 -146 227 0 19 35 10 49 -12 l14 -22 8 22 c5 12 17 22 28
22 24 0 36 18 32 48 -1 12 3 22 9 22 6 0 8 -5 4 -12 -4 -6 -3 -8 2 -5 6 3 11
25 13 49 1 23 8 50 16 58 12 14 21 39 24 72 1 4 14 21 30 39 16 17 32 44 36
58 4 14 11 29 16 32 6 3 12 21 15 40 2 19 6 48 9 64 4 17 8 46 10 65 1 19 3
38 4 42 1 4 8 14 17 22 10 10 11 16 4 16 -8 0 -10 9 -6 25 4 17 0 31 -14 45
-11 11 -15 20 -9 20 7 0 9 10 5 25 -4 16 -2 25 6 25 6 0 3 7 -8 15 -16 12 -17
16 -4 24 12 9 12 12 -2 28 -9 10 -18 29 -20 43 -2 17 -9 25 -22 23 -15 -1 -17
4 -12 28 3 19 2 28 -4 24 -6 -3 -10 1 -10 9 0 9 -5 16 -11 16 -12 0 -76 65
-90 93 -6 9 -7 23 -3 30 5 8 2 7 -9 -2 -14 -11 -18 -11 -23 3 -3 9 -10 14 -14
11 -10 -6 -60 19 -70 35 -3 6 -21 12 -38 13 -21 1 -33 8 -36 21 -4 16 -11 18
-42 13 -28 -5 -43 -2 -58 11 -11 9 -17 13 -14 7 7 -11 -179 -12 -189 -1 -4 3
-15 -1 -25 -11 -12 -10 -18 -12 -18 -4 0 7 -4 10 -8 7 -5 -3 -37 -7 -71 -11
-35 -3 -71 -10 -81 -15 -10 -5 -20 -6 -24 -3 -3 3 -6 1 -6 -6 0 -8 -8 -11 -20
-8 -11 3 -20 1 -20 -4 0 -5 -18 -17 -39 -26 -22 -10 -43 -26 -46 -38 -4 -11
-8 -15 -11 -9 -3 6 -20 -4 -41 -25 -36 -36 -36 -36 -46 -13 -6 12 -14 22 -18
22 -4 0 -10 13 -14 30 -4 16 -11 32 -15 35 -5 3 -18 26 -29 50 -11 24 -29 50
-41 57 -11 7 -32 32 -45 54 -17 29 -37 47 -65 58 -28 11 -44 25 -53 48 -20 46
-49 69 -95 75 -27 4 -42 11 -45 23 -8 30 -49 47 -127 54 -53 4 -83 1 -101 -8z
m628 -548 c-3 -7 -5 -2 -5 12 0 14 2 19 5 13 2 -7 2 -19 0 -25z m0 -330 c-2
-13 -4 -5 -4 17 -1 22 1 32 4 23 2 -10 2 -28 0 -40z m30 -72 c14 -45 6 -79
-23 -107 l-23 -22 9 34 c5 19 11 55 12 81 4 57 11 61 25 14z m-51 -52 c-6 -56
-32 -131 -41 -122 -6 6 36 178 43 178 3 0 2 -25 -2 -56z m-52 -149 c-4 -8 -8
-15 -10 -15 -2 0 -4 7 -4 15 0 8 4 15 10 15 5 0 7 -7 4 -15z m96 -44 c0 -3 -7
-17 -16 -29 -11 -16 -14 -32 -8 -50 4 -15 6 -39 5 -53 -2 -18 5 -32 21 -43 19
-14 23 -25 23 -72 1 -43 5 -60 20 -70 29 -21 84 -34 148 -34 76 0 110 -19 147
-83 30 -53 37 -72 21 -63 -8 5 -87 -13 -122 -28 -12 -5 -27 8 -56 46 -41 55
-104 95 -204 132 -39 15 -45 21 -41 41 2 13 12 25 22 28 44 11 -14 97 -66 97
-21 0 -23 3 -14 26 6 15 15 47 20 73 6 25 17 62 26 82 16 36 16 36 45 22 16
-8 29 -18 29 -22z m-1910 -1066 c-15 -47 -23 -40 -14 14 4 27 10 39 16 33 7
-7 6 -23 -2 -47z m31 -32 c-12 -20 -14 -14 -5 12 4 9 9 14 11 11 3 -2 0 -13
-6 -23z m-154 -295 c-3 -8 -6 -5 -6 6 -1 11 2 17 5 13 3 -3 4 -12 1 -19z m72
-70 l-1 -63 -9 50 c-8 47 -6 75 6 75 3 0 4 -28 4 -62z m-19 -90 c-1 -36 -7
-74 -15 -88 l-14 -25 -1 35 c0 58 12 140 21 140 5 0 9 -28 9 -62z m-79 -210
c-10 -24 -22 -50 -25 -58 -3 -8 -3 -1 0 15 3 17 10 68 15 115 18 150 24 164
27 63 2 -74 -1 -100 -17 -135z m1869 161 c0 -6 -14 -36 -31 -65 -41 -72 -35
-105 8 -46 34 46 37 46 47 -11 4 -21 10 -45 13 -53 4 -11 -5 -14 -38 -13 -40
0 -102 17 -71 18 6 1 12 6 12 12 0 5 -4 8 -9 5 -9 -6 1 56 14 88 6 14 5 17 -4
11 -11 -6 -11 -3 -1 16 18 35 23 38 16 9 -7 -24 -6 -24 8 -6 9 11 16 26 16 33
0 7 5 13 10 13 6 0 10 -5 10 -11z m-1801 -141 l-22 -43 24 20 23 20 -15 -25
c-9 -14 -22 -35 -30 -47 -17 -28 -34 -31 -19 -4 5 11 10 27 10 37 0 16 37 84
46 84 2 0 -5 -19 -17 -42z m42 -61 c-10 -9 -11 -8 -5 6 3 10 9 15 12 12 3 -3
0 -11 -7 -18z m-95 -19 c-12 -40 -17 -50 -22 -46 -5 6 13 58 20 58 3 0 4 -6 2
-12z m1909 -325 c11 -75 57 -310 77 -396 19 -80 20 -98 10 -200 -6 -62 -18
-146 -27 -187 l-17 -75 -115 -112 c-63 -62 -119 -113 -124 -113 -6 0 -29 -13
-52 -29 -23 -15 -52 -32 -65 -35 -13 -4 -27 -19 -32 -32 -5 -13 -21 -29 -35
-36 -32 -14 -32 -36 -1 -44 16 -4 46 4 89 25 36 17 80 34 98 38 30 6 24 -2
-61 -76 -109 -94 -153 -140 -221 -230 l-49 -64 0 135 c0 148 -17 240 -66 349
l-27 59 27 64 c17 40 37 123 55 232 22 132 36 188 64 251 20 45 33 90 31 101
-12 45 70 351 100 370 9 6 240 36 313 41 18 1 23 -6 28 -36z m-2066 -1250 c81
-71 127 -96 208 -113 44 -10 58 -8 109 11 104 38 116 29 107 -79 l-6 -73 44
-46 44 -46 -190 9 c-242 11 -569 7 -615 -8 -39 -13 -100 -17 -100 -7 0 3 11
21 25 40 13 19 32 45 42 59 10 14 33 38 51 54 18 16 42 45 52 65 10 20 37 56
60 81 23 25 51 62 61 82 11 21 22 38 26 38 3 0 40 -30 82 -67z m6518 -969 c-3
-3 -12 -4 -19 -1 -8 3 -5 6 6 6 11 1 17 -2 13 -5z"/>
</g>
</svg>
